data_prep
…
# A tibble: 2 × 2
# Groups:   parent_disappear [2]
  parent_disappear      n
  <lgl>             <int>
1 FALSE            112462
2 TRUE                934

# A tibble: 23 × 5
   swave monthcode  tceb epar_scrnr parent
   <int>     <int> <int>      <int>  <dbl>
 1     1         1     1          1      1
 2     1         2     1          1      1
 3     1         3     1          1      1
 4     1         4     1          1      1
 5     1         5     1          1      1
 6     1         6     1          1      1
 7     1         7     1          1      1
 8     1         8     1          1      1
 9     1         9     1          1      1
10     1        10     1          1      1
# ℹ 13 more rows
…
Perhaps they’re just extraordinarily wealthy? Nope. Even with a modest restriction of networth < 50000 we still see a lot of people with work hours and no income.

# A tibble: 1 × 1
      n
  <int>
1   217

What about the related issue of months reported with no working hours but they still met our threshold of being employed each month (according to jobid data) and having mean hours greater than or equal to 15.

# A tibble: 1 × 1
      n
  <int>
1   460

# A tibble: 4,160 × 3
   ssuid_spanel_pnum     months_0workhours months
   <chr>                             <int>  <int>
 1 881860415179202020101                17     36
 2 332418662346182018101                14     24
 3 8768603445842014102                  14     36
 4 285049440182018101                   13     36
 5 332359501401182018201                12     24
 6 3324182151422014101                  12     24
 7 3329250980892014101                  12     36
 8 384189959942014101                   12     36
 9 38860814373182018102                 12     24
10 3988603345822014102                  12     36
# ℹ 4,150 more rows
…
